-----BEGIN PGP MESSAGE-----

jA0EBwMCHhe/NYxUe2z30sA6AQa4XQWmiGFfg8S9KXaAJqtLtxvS8dqnsuZwtC3Z
Njjfixc5WY2JbGha/Ii8eJX9lMH2E0PQAbw3JI0G/E1bPlV4/9La3NORvsRhpKWe
WvkWtutE9Ow9BTaBMFpMlrh58/TqcC1RrftdSONqRTg36VBG0x14eoRDXwUKMHJV
SKTSqiOZgxKGEFcbFqMyncFb7GsuDuJp6SL150SEu4pf/lxW7Irixckdx1dOVWEq
m4590octWNUxQR6GuxLhZVKLh1QXYrgWjpBtqqf43dFVctBpTkQMywZSbgPXD1ap
pACc7jeC97Is5hiK6AlF2q+AJTI38bxCMRP1IA==
=yag4
-----END PGP MESSAGE-----
